result.vcd
$date
     Jul 15, 2025       10:27:31
$end

$version
 SystemC 2.3.4-Accellera --- May 15 2024 16:21:07
$end

$timescale
     1 ps
$end

$scope module SystemC $end
$var wire    1  aaaaa  clk       $end
$var wire   32  aaaab  addr [31:0]  $end
$var wire   32  aaaac  wdata [31:0]  $end
$var wire   32  aaaad  rdata [31:0]  $end
$var wire   32  aaaae  mem_rdata [31:0]  $end
$var wire   32  aaaaf  mem_addr [31:0]  $end
$var wire   32  aaaag  mem_wdata [31:0]  $end
$var wire    1  aaaah  r       $end
$var wire    1  aaaai  w       $end
$var wire    1  aaaaj  wide       $end
$var wire    1  aaaak  mem_ready       $end
$var wire    1  aaaal  ready       $end
$var wire    1  aaaam  error       $end
$var wire    1  aaaan  mem_r       $end
$var wire    1  aaaao  mem_w       $end
$var wire    8  aaaap  user [7:0]  $end
$var wire    1  aaaaq  Memory_ready_signal       $end
$upscope $end
$enddefinitions  $end

$comment
All initial values are dumped below at time 0 sec = 0 timescale units.
$end

$dumpvars
1aaaaa
b0 aaaab
b1 aaaac
b0 aaaad
b0 aaaae
b0 aaaaf
b1 aaaag
0aaaah
1aaaai
1aaaaj
0aaaak
0aaaal
0aaaam
0aaaan
1aaaao
b101010 aaaap
0aaaaq
$end

#5000
0aaaaa

#10000
1aaaaa
1aaaak
1aaaaq

#15000
0aaaaa

#20000
1aaaaa
1aaaal
0aaaao

#25000
0aaaaa

#30000
1aaaaa
b1000 aaaab
b10001 aaaac
b1000 aaaaf
b10001 aaaag
0aaaak
0aaaal
1aaaao
0aaaaq

#35000
0aaaaa

#40000
1aaaaa
1aaaak
1aaaaq

#45000
0aaaaa

#50000
1aaaaa
1aaaal
0aaaao

#55000
0aaaaa

#60000
1aaaaa
b101 aaaab
b10101010 aaaac
b101 aaaaf
b0 aaaag
0aaaaj
0aaaak
0aaaal
1aaaan
0aaaaq

#65000
0aaaaa

#70000
1aaaaa
b10001000000000000000000000000 aaaae
b10001000000001010101000000000 aaaag
1aaaak
0aaaan
1aaaao
1aaaaq

#75000
0aaaaa

#80000
1aaaaa
1aaaal
0aaaao

#85000
0aaaaa

#90000
1aaaaa
b1001 aaaab
b10111011 aaaac
b0 aaaae
b1001 aaaaf
b0 aaaag
0aaaak
0aaaal
1aaaan
0aaaaq

#95000
0aaaaa

#100000
1aaaaa
b1011101100000000 aaaag
1aaaak
0aaaan
1aaaao
1aaaaq

#105000
0aaaaa

#110000
1aaaaa
1aaaal
0aaaao

#115000
0aaaaa

#120000
1aaaaa
b100000 aaaab
b10 aaaac
b100000 aaaaf
b10 aaaag
1aaaaj
0aaaak
0aaaal
1aaaao
b101011 aaaap
0aaaaq

#125000
0aaaaa

#130000
1aaaaa
1aaaak
1aaaaq

#135000
0aaaaa

#140000
1aaaaa
1aaaal
0aaaao

#145000
0aaaaa

#150000
1aaaaa
b100100 aaaab
b100010 aaaac
b100100 aaaaf
b100010 aaaag
0aaaak
0aaaal
1aaaao
0aaaaq

#155000
0aaaaa

#160000
1aaaaa
1aaaak
1aaaaq

#165000
0aaaaa

#170000
1aaaaa
1aaaal
0aaaao

#175000
0aaaaa

#180000
1aaaaa
b100001 aaaab
b11001100 aaaac
b100001 aaaaf
b0 aaaag
0aaaaj
0aaaak
0aaaal
1aaaan
0aaaaq

#185000
0aaaaa

#190000
1aaaaa
b100010000000000000000000000000 aaaae
b100010000000001100110000000000 aaaag
1aaaak
0aaaan
1aaaao
1aaaaq

#195000
0aaaaa

#200000
1aaaaa
1aaaal
0aaaao

#205000
0aaaaa

#210000
1aaaaa
b100101 aaaab
b11011101 aaaac
b0 aaaae
b100101 aaaaf
b0 aaaag
0aaaak
0aaaal
1aaaan
0aaaaq

#215000
0aaaaa

#220000
1aaaaa
b1101110100000000 aaaag
1aaaak
0aaaan
1aaaao
1aaaaq

#225000
0aaaaa

#230000
1aaaaa
1aaaal
0aaaao

#235000
0aaaaa

#240000
1aaaaa
b100000 aaaab
b11011110101011011011111011101111 aaaac
b0 aaaaf
b0 aaaag
1aaaaj
0aaaak
1aaaam
b101010 aaaap
0aaaaq

#245000
0aaaaa

#250000
1aaaaa
b100100 aaaab
b10010001101000101011001111000 aaaac

#255000
0aaaaa

#260000
1aaaaa
b100 aaaab
b10000111011001010100001100100001 aaaac
b101011 aaaap

#265000
0aaaaa

#270000
1aaaaa
b1000 aaaab
b1010101011001100111011110001000 aaaac

#275000
0aaaaa

#280000
1aaaaa
b0 aaaab
b0 aaaac
0aaaai
0aaaaj
0aaaal
0aaaam
b0 aaaap

