trace.log.vcd
$date
     Jul 14, 2025       00:22:08
$end

$version
 SystemC 3.0.1-Accellera --- Jul  8 2025 03:25:19
$end

$timescale
     1 ps
$end

$scope module SystemC $end
$var wire    1  aaaaa  clk       $end
$var wire   32  aaaab  addr [31:0]  $end
$var wire   32  aaaac  wdata [31:0]  $end
$var wire   32  aaaad  rdata [31:0]  $end
$var wire   32  aaaae  mem_rdata [31:0]  $end
$var wire   32  aaaaf  mem_addr [31:0]  $end
$var wire   32  aaaag  mem_wdata [31:0]  $end
$var wire    1  aaaah  r       $end
$var wire    1  aaaai  w       $end
$var wire    1  aaaaj  wide       $end
$var wire    1  aaaak  mem_ready       $end
$var wire    1  aaaal  ready       $end
$var wire    1  aaaam  error       $end
$var wire    1  aaaan  mem_r       $end
$var wire    1  aaaao  mem_w       $end
$var wire    8  aaaap  user [7:0]  $end
$upscope $end
$enddefinitions  $end

$comment
All initial values are dumped below at time 0 sec = 0 timescale units.
$end

$dumpvars
1aaaaa
b10010000 aaaab
b10010001101001010101111001101 aaaac
b0 aaaad
b0 aaaae
b0 aaaaf
b0 aaaag
0aaaah
1aaaai
1aaaaj
0aaaak
1aaaal
0aaaam
0aaaan
0aaaao
b101010 aaaap
$end

#5000
0aaaaa

#10000
1aaaaa
b10100101 aaaab
b11011110101011011011111011101111 aaaac
0aaaaj
b11001000 aaaap

#15000
0aaaaa

#20000
1aaaaa
b11111111 aaaab
b10011000011101100101010000110010 aaaac
1aaaaj
b10000000 aaaap

#25000
0aaaaa

#30000
1aaaaa
b10010000 aaaab
b0 aaaac
1aaaah
0aaaai
0aaaal
b101010 aaaap

#35000
0aaaaa

#40000
1aaaaa

#41000
1aaaal

#45000
0aaaaa

#50000
1aaaaa
b10100101 aaaab
0aaaaj
0aaaal
b11001000 aaaap

#55000
0aaaaa

#60000
1aaaaa

#61000
1aaaal

#65000
0aaaaa

#70000
1aaaaa
b11111111 aaaab
1aaaaj
0aaaal
b10000000 aaaap

#75000
0aaaaa

#80000
1aaaaa

#81000
1aaaal

#85000
0aaaaa

#90000
1aaaaa
b0 aaaab
0aaaah
0aaaaj
0aaaal
b0 aaaap

