testcase/result.vcd
$date
     Jul 26, 2025       15:51:07
$end

$version
 SystemC 2.3.4-Accellera --- May 15 2024 16:21:07
$end

$timescale
     1 ps
$end

$scope module SystemC $end
$var wire    1  aaaaa  clk       $end
$var wire   32  aaaab  addr [31:0]  $end
$var wire   32  aaaac  wdata [31:0]  $end
$var wire   32  aaaad  rdata [31:0]  $end
$var wire   32  aaaae  mem_rdata [31:0]  $end
$var wire   32  aaaaf  mem_addr [31:0]  $end
$var wire   32  aaaag  mem_wdata [31:0]  $end
$var wire    1  aaaah  r       $end
$var wire    1  aaaai  w       $end
$var wire    1  aaaaj  wide       $end
$var wire    1  aaaak  mem_ready       $end
$var wire    1  aaaal  ready       $end
$var wire    1  aaaam  error       $end
$var wire    1  aaaan  mem_r       $end
$var wire    1  aaaao  mem_w       $end
$var wire    8  aaaap  user [7:0]  $end
$var wire    1  aaaaq  rom_ready       $end
$var wire    1  aaaar  Memory_ready_signal       $end
$upscope $end
$enddefinitions  $end

$comment
All initial values are dumped below at time 0 sec = 0 timescale units.
$end

$dumpvars
1aaaaa
b0 aaaab
b10010001101001010101111001101 aaaac
b0 aaaad
b0 aaaae
b0 aaaaf
b0 aaaag
0aaaah
1aaaai
1aaaaj
0aaaak
1aaaal
1aaaam
0aaaan
0aaaao
b101010 aaaap
0aaaaq
0aaaar
$end

#5000
0aaaaa

#10000
1aaaaa
b100011 aaaab
b11011110 aaaac
0aaaaj
b11001000 aaaap

#15000
0aaaaa

#20000
1aaaaa
b0 aaaab
b0 aaaac
1aaaah
0aaaai
0aaaal
b101010 aaaap

#25000
0aaaaa

#30000
1aaaaa

#35000
0aaaaa

#40000
1aaaaa
b11001000 aaaad
1aaaal
0aaaam
1aaaaq

#45000
0aaaaa

#50000
1aaaaa
b10100 aaaab
b0 aaaad
0aaaal
b11001000 aaaap

#55000
0aaaaa

#60000
1aaaaa
0aaaaq

#65000
0aaaaa

#70000
1aaaaa
b1111111 aaaad
1aaaal
1aaaaq

#75000
0aaaaa

#80000
1aaaaa
b100100 aaaab
b0 aaaad
0aaaal
b10000000 aaaap

#85000
0aaaaa

#90000
1aaaaa
0aaaaq

#95000
0aaaaa

#100000
1aaaaa
b10101101 aaaad
1aaaal
1aaaaq

#105000
0aaaaa

#110000
1aaaaa
b0 aaaab
b0 aaaad
1aaaaj
0aaaal
b111 aaaap

#115000
0aaaaa

#120000
1aaaaa
0aaaaq

#125000
0aaaaa

#130000
1aaaaa
b10011010000100100010111001000 aaaad
1aaaal
1aaaaq

#135000
0aaaaa

#140000
1aaaaa
b10100 aaaab
b0 aaaad
0aaaal
b101010 aaaap

#145000
0aaaaa

#150000
1aaaaa
0aaaaq

#155000
0aaaaa

#160000
1aaaaa
b1100101111100000010000001111111 aaaad
1aaaal
1aaaaq

#165000
0aaaaa

#170000
1aaaaa
b100101 aaaab
b0 aaaad
0aaaal
b101 aaaap

#175000
0aaaaa

#180000
1aaaaa
0aaaaq

#185000
0aaaaa

#190000
1aaaaa
1aaaal
1aaaam
1aaaaq

#195000
0aaaaa

#200000
1aaaaa
b1111011 aaaab
0aaaal

#205000
0aaaaa

#210000
1aaaaa
0aaaaq

#215000
0aaaaa

#220000
1aaaaa
1aaaal
1aaaaq

#225000
0aaaaa

#230000
1aaaaa
b11111101 aaaab
b11111101 aaaaf
0aaaal
1aaaan

#235000
0aaaaa

#240000
1aaaaa

#245000
0aaaaa

#250000
1aaaaa

#255000
0aaaaa

#260000
1aaaaa

#265000
0aaaaa

#270000
1aaaaa
1aaaak
1aaaal
0aaaam
1aaaar

#275000
0aaaaa

#280000
1aaaaa
b0 aaaab
b0 aaaaf
0aaaah
0aaaaj
0aaaak
0aaaal
0aaaan
b0 aaaap
0aaaar

