testcase/tracefile.vcd
$date
     Jul 13, 2025       20:13:52
$end

$version
 SystemC 2.3.4-Accellera --- May 15 2024 16:21:07
$end

$timescale
     1 ps
$end

$scope module SystemC $end
$var wire    1  aaaaa  clk       $end
$var wire   32  aaaab  addr [31:0]  $end
$var wire   32  aaaac  wdata [31:0]  $end
$var wire   32  aaaad  rdata [31:0]  $end
$var wire   32  aaaae  mem_rdata [31:0]  $end
$var wire   32  aaaaf  mem_addr [31:0]  $end
$var wire   32  aaaag  mem_wdata [31:0]  $end
$var wire    1  aaaah  r       $end
$var wire    1  aaaai  w       $end
$var wire    1  aaaaj  wide       $end
$var wire    1  aaaak  mem_ready       $end
$var wire    1  aaaal  ready       $end
$var wire    1  aaaam  error       $end
$var wire    1  aaaan  mem_r       $end
$var wire    1  aaaao  mem_w       $end
$var wire    8  aaaap  user [7:0]  $end
$var wire    1  aaaaq  Memory_ready_signal       $end
$upscope $end
$enddefinitions  $end

$comment
All initial values are dumped below at time 0 sec = 0 timescale units.
$end

$dumpvars
1aaaaa
b10010000 aaaab
b10010001101001010101111001101 aaaac
b0 aaaad
b0 aaaae
b10010000 aaaaf
b10010001101001010101111001101 aaaag
0aaaah
1aaaai
1aaaaj
0aaaak
0aaaal
0aaaam
0aaaan
1aaaao
b101010 aaaap
0aaaaq
$end

#5000
0aaaaa

#10000
1aaaaa
1aaaak
1aaaaq

#15000
0aaaaa

#20000
1aaaaa
1aaaal
0aaaao

#25000
0aaaaa

#30000
1aaaaa
b10100101 aaaab
b11011110101011011011111011101111 aaaac
b0 aaaaf
b0 aaaag
0aaaaj
0aaaak
1aaaam
b11001000 aaaap
0aaaaq

#35000
0aaaaa

#40000
1aaaaa
b11111111 aaaab
b10011000011101100101010000110010 aaaac
1aaaaj
b10000000 aaaap

#45000
0aaaaa

#50000
1aaaaa
b10010000 aaaab
b0 aaaac
b10010000 aaaaf
1aaaah
0aaaai
0aaaal
0aaaam
1aaaan
b101010 aaaap

#55000
0aaaaa

#60000
1aaaaa
b10010001101001010101111001101 aaaad
b10010001101001010101111001101 aaaae
1aaaak
1aaaal
1aaaaq

#65000
0aaaaa

#70000
1aaaaa
b10100101 aaaab
b0 aaaad
b0 aaaae
b0 aaaaf
0aaaaj
0aaaak
1aaaam
0aaaan
b11001000 aaaap
0aaaaq

#75000
0aaaaa

#80000
1aaaaa
b11111111 aaaab
1aaaaj
b10000000 aaaap

#85000
0aaaaa

#90000
1aaaaa
b1111111111111111 aaaab
b1001000110100 aaaac
b1111111111111111 aaaaf
b1001000110100 aaaag
0aaaah
1aaaai
0aaaal
0aaaam
1aaaao
b11000 aaaap

#95000
0aaaaa

#100000
1aaaaa
1aaaak
1aaaaq

#105000
0aaaaa

#110000
1aaaaa
1aaaal
0aaaao

#115000
0aaaaa

#120000
1aaaaa
b0 aaaab
b0 aaaac
b0 aaaaf
b0 aaaag
0aaaai
0aaaaj
0aaaak
0aaaal
b0 aaaap
0aaaaq

